<svg width="190" height="190" viewBox="0 0 190 190" fill="none" xmlns="http://www.w3.org/2000/svg">
<path d="M57 52.25V0H0V52.25L28.5 80.75L57 52.25Z" transform="translate(66.5)" fill="#FF522E"/>
<path d="M52.25 0H0V57H52.25L80.75 28.5L52.25 0Z" transform="translate(0 66.5)" fill="#FF522E"/>
<path d="M0 28.5V80.75H57V28.5L28.5 0L0 28.5Z" transform="translate(66.5 109.25)" fill="#00566E"/>
<path d="M28.5 0L0 28.5L28.5 57H80.75V0H28.5Z" transform="translate(109.25 66.5)" fill="#00566E"/>
</svg>
