<svg width="57" height="78" viewBox="0 0 57 78" fill="none" xmlns="http://www.w3.org/2000/svg">
<path d="M56 27.7285C55.86 12.3782 43.4 1.83407e-07 28 1.83407e-07C12.6 1.83407e-07 0.14 12.3782 0 27.7285V27.9733V48.7085C0 64.1637 12.53 76.6817 28 76.6817C43.47 76.6817 56 64.1637 56 48.7085V27.9733V27.7285ZM49 27.7285H31.5V7.30802C41.335 8.95145 48.86 17.4483 49 27.7285ZM24.5 7.30802V27.7285H7C7.14 17.4483 14.665 8.95145 24.5 7.30802ZM49 48.7085C49 60.2824 39.585 69.6884 28 69.6884C16.415 69.6884 7 60.2824 7 48.7085V34.7218H49V48.7085Z" transform="translate(0.420898 0.517578)" fill="#656366"/>
</svg>
